…
PHSWhite1 <- subset(PHSWhiteComplete, GID %in% myGD$X)
w<- PHSWhite1 %>%
  group_by(Year, Loc) %>%
  summarize(White = length(unique(GID)))
PHSred1 <- subset(PHSRedComplete, GID %in% myGD$X)
r<- PHSred1 %>%
  group_by(Year, Loc) %>%
  summarize(Red = length(unique(GID))) 
a <- cbind(c,w,r) 

a %>%
  dplyr::select(Year, Loc, Comb, White, Red)
```

    ## # A tibble: 24 x 5
    ## # Groups:   Year [9]
    ##    Year  Loc      Comb White   Red
    ##    <chr> <chr>   <int> <int> <int>
    ##  1 2010  Helfer    171   116    55
    ##  2 2010  Ketola    208   151    57
    ##  3 2010  Snyder    204   147    57
    ##  4 2011  Helfer    263   190    73
    ##  5 2011  Ketola    266   199    67
    ##  6 2011  McGowen   263   200    63
    ##  7 2012  Helfer    259   180    79
    ##  8 2012  Ketola    266   189    77
    ##  9 2012  Snyder    250   179    71
    ## 10 2013  Helfer     80    51    29
    ## # ... with 14 more rows
